-------------------------------------------------------------------------------
Test set: com.acme.customers.server.api.CustomerApiUnitTest
-------------------------------------------------------------------------------
Tests run: 7, Failures: 4, Errors: 0, Skipped: 1, Time elapsed: 6.56 s <<< FAILURE! - in com.acme.customers.server.api.CustomerApiUnitTest
helloWorldTest(com.acme.customers.server.api.CustomerApiUnitTest)  Time elapsed: 0.348 s  <<< FAILURE!
org.junit.ComparisonFailure: expected:<[Hello]> but was:<[hi]>
	at com.acme.customers.server.api.CustomerApiUnitTest.helloWorldTest(CustomerApiUnitTest.java:55)

getCustomerById(com.acme.customers.server.api.CustomerApiUnitTest)  Time elapsed: 0.138 s  <<< FAILURE!
org.junit.ComparisonFailure: expected:<[Admin]> but was:<[Roy]>
	at com.acme.customers.server.api.CustomerApiUnitTest.getCustomerById(CustomerApiUnitTest.java:86)

deleteCustomer(com.acme.customers.server.api.CustomerApiUnitTest)  Time elapsed: 0.012 s  <<< FAILURE!
java.lang.AssertionError: End point not defined
	at com.acme.customers.server.api.CustomerApiUnitTest.deleteCustomer(CustomerApiUnitTest.java:159)

updateCustomer(com.acme.customers.server.api.CustomerApiUnitTest)  Time elapsed: 0.028 s  <<< FAILURE!
java.lang.AssertionError: End point not defined
	at com.acme.customers.server.api.CustomerApiUnitTest.updateCustomer(CustomerApiUnitTest.java:142)

