-------------------------------------------------------------------------------
Test set: com.acme.customers.server.api.CustomerApiExternalTest
-------------------------------------------------------------------------------
Tests run: 1, Failures: 1, Errors: 0, Skipped: 0, Time elapsed: 6.342 s <<< FAILURE! - in com.acme.customers.server.api.CustomerApiExternalTest
exampleTest(com.acme.customers.server.api.CustomerApiExternalTest)  Time elapsed: 0.374 s  <<< FAILURE!
org.junit.ComparisonFailure: expected:<[Hello]> but was:<[hi]>
	at com.acme.customers.server.api.CustomerApiExternalTest.exampleTest(CustomerApiExternalTest.java:23)

